^C:\USERS\SAME\DESKTOP\ISNELAB\CHALLENGE-6\FRACTION.H\FRACTION.H\DEBUG\FRACTION.H.OBJ|C:\USERS\SAME\DESKTOP\ISNELAB\CHALLENGE-6\FRACTION.H\FRACTION.H\DEBUG\STDAFX.OBJ
C:\USERS\SAME\DESKTOP\ISNELAB\CHALLENGE-6\FRACTION.H\DEBUG\FRACTION.H.ILK
C:\USERS\SAME\DESKTOP\ISNELAB\CHALLENGE-6\FRACTION.H\DEBUG\FRACTION.H.EXE
C:\USERS\SAME\DESKTOP\ISNELAB\CHALLENGE-6\FRACTION.H\DEBUG\FRACTION.H.PDB
